<svg width="27" height="27" viewBox="0 0 27 27" fill="none" xmlns="http://www.w3.org/2000/svg">
<path fill-rule="evenodd" clip-rule="evenodd" d="M4.01075 7.63879C3.97937 7.92335 3.88274 8.19683 3.72837 8.43793C3.574 8.67902 3.36605 8.88124 3.12073 9.02881C3.04474 9.04315 2.96675 9.04315 2.89075 9.02881C2.78508 9.03226 2.68183 8.99669 2.60074 8.92883L2.52073 8.86884C2.30914 8.61834 2.20177 8.29616 2.22074 7.96881C2.22074 7.96881 2.22074 7.88882 2.22074 7.84882C2.22153 7.51969 2.30648 7.19622 2.4675 6.90918C2.62853 6.62214 2.86029 6.38104 3.14075 6.2088C3.56075 6.0288 3.93075 6.31883 4.04075 6.85883C4.05157 6.97858 4.05157 7.09905 4.04075 7.21881C4.05547 7.34505 4.05547 7.47258 4.04075 7.59882L4.01075 7.63879ZM13.1207 0.288818L1.22074 5.36884C0.901371 5.57173 0.640898 5.85492 0.465399 6.19012C0.2899 6.52533 0.205534 6.90075 0.220739 7.27881V10.3588C0.220739 11.1788 0.660739 11.6788 1.22074 11.4688L13.1307 6.80884V0.278809L13.1207 0.288818Z" fill="#5C606B"/>
<path fill-rule="evenodd" clip-rule="evenodd" d="M7.14071 10.719L0.9107 13.099C0.687853 13.2344 0.505947 13.4278 0.384424 13.6585C0.262901 13.8892 0.206319 14.1486 0.220697 14.409V18.409C0.220697 18.989 0.5307 19.349 0.9107 19.219L7.14071 17.0689C7.37789 16.9348 7.57341 16.7377 7.70574 16.4995C7.83808 16.2613 7.90209 15.9912 7.89071 15.719V11.5689C7.89071 10.9189 7.55071 10.559 7.14071 10.719Z" fill="#5C606B"/>
<path fill-rule="evenodd" clip-rule="evenodd" d="M13.1306 8.42871V14.9587L11.0606 15.6687C10.4506 15.8787 9.96063 15.3487 9.96063 14.4787V11.2187C9.94572 10.817 10.0402 10.4187 10.2339 10.0665C10.4277 9.71423 10.7134 9.42122 11.0606 9.21869L13.1306 8.43866V8.42871Z" fill="#5C606B"/>
<path fill-rule="evenodd" clip-rule="evenodd" d="M4.01077 23.1188C3.9853 23.3934 3.89017 23.6568 3.73443 23.8843C3.57869 24.1118 3.36746 24.2958 3.12075 24.4189C3.0444 24.4287 2.96712 24.4287 2.89077 24.4189C2.78404 24.4029 2.68372 24.3579 2.60076 24.2889L2.52075 24.2188C2.31217 23.9588 2.20552 23.6318 2.22076 23.2989C2.22076 23.2989 2.22076 23.2189 2.22076 23.1789C2.21613 22.8595 2.29951 22.5449 2.46179 22.2697C2.62407 21.9945 2.859 21.7694 3.14077 21.6188C3.56077 21.4788 3.93077 21.7888 4.04077 22.3488C4.05159 22.4686 4.05159 22.5892 4.04077 22.7089C4.05549 22.8352 4.05549 22.9627 4.04077 23.0889L4.01077 23.1188ZM13.1208 16.5889L1.21075 20.5889C0.893424 20.7717 0.632356 21.038 0.45602 21.3589C0.279683 21.6799 0.194846 22.043 0.21075 22.4089V25.4988C0.21075 26.3188 0.65075 26.8589 1.21075 26.6889L13.1208 23.1088V16.5889Z" fill="#5C606B"/>
<g opacity="0.9">
<path fill-rule="evenodd" clip-rule="evenodd" d="M25.3307 20.6988L19.1108 18.5987C18.6908 18.4687 18.3608 18.8388 18.3608 19.4388V23.5888C18.343 23.858 18.4046 24.1265 18.5379 24.3611C18.6712 24.5957 18.8704 24.7861 19.1108 24.9087L25.3307 26.7787C25.7107 26.8887 26.0207 26.5188 26.0207 25.9388V21.9388C26.0363 21.6823 25.9799 21.4266 25.858 21.2005C25.7361 20.9743 25.5535 20.7867 25.3307 20.6587V20.6988Z" fill="#5C606B"/>
<path fill-rule="evenodd" clip-rule="evenodd" d="M13.1207 16.5889V23.1088L15.1907 23.7288C15.7907 23.9088 16.2907 23.3588 16.2907 22.4888V19.2789C16.3173 18.8753 16.2278 18.4725 16.0329 18.1182C15.838 17.7638 15.5458 17.4726 15.1907 17.2789L13.1207 16.5889Z" fill="#5C606B"/>
<path fill-rule="evenodd" clip-rule="evenodd" d="M23.7508 16.579C23.73 16.6048 23.7065 16.6282 23.6808 16.649C23.5963 16.7188 23.4903 16.7576 23.3807 16.759C23.3052 16.778 23.2262 16.778 23.1507 16.759C22.902 16.627 22.6897 16.4356 22.5327 16.2018C22.3757 15.9681 22.2788 15.6992 22.2508 15.419C22.2405 15.2925 22.2405 15.1655 22.2508 15.039C22.24 14.9226 22.24 14.8054 22.2508 14.689C22.3508 14.139 22.7207 13.829 23.1507 13.989C23.4307 14.1518 23.663 14.3853 23.8245 14.6661C23.9859 14.9469 24.0708 15.2651 24.0707 15.589V15.719C24.0769 16.0359 23.9626 16.3432 23.7508 16.579ZM21.1007 15.629L21.0207 15.699C20.9317 15.7676 20.8231 15.8062 20.7107 15.809C20.6352 15.8281 20.5562 15.8281 20.4807 15.809C20.2265 15.6754 20.0089 15.4816 19.8468 15.2445C19.6847 15.0074 19.583 14.7343 19.5508 14.449C19.5408 14.3192 19.5408 14.1888 19.5508 14.059C19.5399 13.9393 19.5399 13.8187 19.5508 13.699C19.6608 13.139 20.0407 12.829 20.4807 12.999C20.7667 13.1617 21.0044 13.3975 21.1695 13.6821C21.3347 13.9667 21.4214 14.29 21.4207 14.619C21.4253 14.6622 21.4253 14.7057 21.4207 14.749C21.4439 15.0829 21.3363 15.4129 21.1208 15.669L21.1007 15.629ZM25.0407 12.989L13.1307 8.43896V14.959L25.0407 19.079C25.5907 19.269 26.0407 18.759 26.0407 17.929V14.849C26.0642 14.4765 25.983 14.1049 25.8062 13.7762C25.6295 13.4475 25.3644 13.1749 25.0407 12.989Z" fill="#5C606B"/>
<path fill-rule="evenodd" clip-rule="evenodd" d="M25.3308 5.49857L19.1108 2.8386C18.6908 2.6686 18.3608 3.00863 18.3608 3.61863V7.76859C18.3483 8.0451 18.4116 8.31977 18.5437 8.56297C18.6759 8.80616 18.872 9.00866 19.1108 9.1486L25.3308 11.5786C25.7108 11.7286 26.0208 11.3786 26.0208 10.7986V6.79862C26.0253 6.54124 25.9643 6.28693 25.8436 6.05955C25.723 5.83217 25.5465 5.6391 25.3308 5.49857Z" fill="#5C606B"/>
<path fill-rule="evenodd" clip-rule="evenodd" d="M13.1207 0.278809V6.79883L15.1907 7.60883C15.7907 7.84883 16.2907 7.33881 16.2907 6.46881V3.19879C16.2934 2.79924 16.1937 2.4057 16.0011 2.0556C15.8086 1.7055 15.5296 1.41051 15.1907 1.19879L13.1207 0.278809Z" fill="#5C606B"/>
</g>
</svg>
