<svg width="14" height="26" viewBox="0 0 14 26" fill="none" xmlns="http://www.w3.org/2000/svg">
<path d="M13.3365 10.6318L12.9342 14.1159C12.9175 14.2749 12.8431 14.4222 12.7249 14.5299C12.6068 14.6375 12.4532 14.6981 12.2933 14.7H8.65697L8.63879 25.0295C8.64002 25.152 8.59303 25.2699 8.50797 25.358C8.42291 25.446 8.30662 25.497 8.18424 25.5H4.50015C4.4389 25.5 4.37827 25.4877 4.3219 25.4637C4.26553 25.4398 4.21459 25.4047 4.17214 25.3605C4.12968 25.3164 4.09659 25.2641 4.07485 25.2068C4.0531 25.1495 4.04316 25.0885 4.04561 25.0273V14.7H1.31833C1.23268 14.6991 1.14803 14.6814 1.06923 14.6477C0.990438 14.6141 0.919032 14.5653 0.859095 14.5041C0.799158 14.4429 0.751864 14.3705 0.719913 14.291C0.687962 14.2116 0.67198 14.1266 0.67288 14.0409L0.659244 10.5568C0.658042 10.4709 0.673784 10.3855 0.705572 10.3056C0.73736 10.2258 0.784571 10.1529 0.844509 10.0913C0.904446 10.0297 0.975937 9.98046 1.0549 9.94647C1.13386 9.91247 1.21874 9.89437 1.3047 9.89318H4.04561V6.52955C4.04561 2.625 6.36379 0.5 9.76379 0.5H12.5502C12.6363 0.500889 12.7214 0.518778 12.8007 0.552639C12.8799 0.586501 12.9516 0.63567 13.0118 0.697326C13.072 0.758981 13.1194 0.831911 13.1513 0.911932C13.1833 0.991952 13.1991 1.07749 13.1979 1.16364V4.09545C13.1991 4.1816 13.1833 4.26714 13.1513 4.34716C13.1194 4.42718 13.072 4.50011 13.0118 4.56176C12.9516 4.62342 12.8799 4.67259 12.8007 4.70645C12.7214 4.74031 12.6363 4.7582 12.5502 4.75909H10.8411C8.99334 4.75909 8.63425 5.66818 8.63425 6.98182V9.89318H12.6956C12.788 9.89434 12.879 9.91503 12.9628 9.9539C13.0466 9.99277 13.1212 10.0489 13.1818 10.1187C13.2423 10.1885 13.2874 10.2703 13.3141 10.3587C13.3407 10.4471 13.3484 10.5402 13.3365 10.6318Z" fill="white"/>
</svg>
